Taxonomic group OTU dynamics
…
## [1] 51

write.csv(ph_corrs_dat, "../../Tables/TableS2.csv", row.names = FALSE)

Figure 5

nc_prune %>% 
  tax_glom(taxrank = "Family") %>% 
  psmelt() %>%
  group_by(Family) %>%
  summarise(mean = mean(Abundance)) %>%
  arrange(desc(mean))

## # A tibble: 44 x 2
##               Family      mean
##               <fctr>     <dbl>
## 1                acI 3626.0943
## 2               bacI 1141.0189
## 3               betI  745.0189
## 4  Planctomycetaceae  678.6415
## 5               bacV  506.2830
## 6              betIV  479.6604
## 7              betII  291.9057
## 8              acTH1  257.8491
## 9               acIV  252.3208
## 10            bacIII  246.0755
## # ... with 34 more rows
…
